{
  "template": "pure",
  "kill": "webapp-container",
  "dependencies": [
    "libpam0g-dev:armhf", 
    "libgsettings-qt-dev:armhf",
    "qtdeclarative5-gsettings1.0:armhf"
  ],
  "ignore": [
        ".clickable",
        ".git",
        ".gitignore",
        ".gitlab-ci.yml",
        "clickable.json"
    ]

}

